%YAML 1.1
%TAG !u! tag:unity3d.com,2011:
--- !u!114 &11400000
MonoBehaviour:
  m_ObjectHideFlags: 0
  m_CorrespondingSourceObject: {fileID: 0}
  m_PrefabInstance: {fileID: 0}
  m_PrefabAsset: {fileID: 0}
  m_GameObject: {fileID: 0}
  m_Enabled: 1
  m_EditorHideFlags: 0
  m_Script: {fileID: 11500000, guid: 9ac2c4eeca9f4544392ed25e3f261559, type: 3}
  m_Name: RecipeCuenco
  m_EditorClassIdentifier: 
  recipeName: Cuenco
  objectToCreate: {fileID: 7466427622202046938, guid: f800b44370364cd4b9bfb5fc4fd57f39,
    type: 3}
  level: 4
  amount: 0
  unlocked: 0
  readyToCraft: 1
  ListOfItemNeeded:
  - Item: {fileID: 11400000, guid: a3d1b9c6587b47e4da7ddaa6e6d4e84d, type: 2}
    ItemAmountNeeded: 4
  - Item: {fileID: 0}
    ItemAmountNeeded: 8
  - Item: {fileID: 0}
    ItemAmountNeeded: 3
  - Item: {fileID: 0}
    ItemAmountNeeded: 0
