%YAML 1.1
%TAG !u! tag:unity3d.com,2011:
--- !u!114 &11400000
MonoBehaviour:
  m_ObjectHideFlags: 0
  m_CorrespondingSourceObject: {fileID: 0}
  m_PrefabInstance: {fileID: 0}
  m_PrefabAsset: {fileID: 0}
  m_GameObject: {fileID: 0}
  m_Enabled: 1
  m_EditorHideFlags: 0
  m_Script: {fileID: 11500000, guid: faaf0903c0984754ba333abfb8a279be, type: 3}
  m_Name: Baba
  m_EditorClassIdentifier: 
  itemName: Baba
  amount: 46
  itemSpr: {fileID: 1974031060097812118, guid: 8deae3ae3800cd24c812527d80b60130, type: 3}
